Division,WeightClassKg,Place,Name,Team,BodyweightKg,Best3SquatKg,Best3BenchKg,Best3DeadliftKg,TotalKg,Equipment,Event,Sex,BirthDate
Boys,51.71,1,Alex Le,Palacios,50.35,136.08,83.91,120.2,340.19,Single-ply,SBD,M,
Boys,51.71,2,Imanol Mendez,Louise,50.62,106.59,61.23,117.93,285.76,Single-ply,SBD,M,
Boys,51.71,3,Cam Graves,Palacios,43.86,79.38,49.9,90.72,219.99,Single-ply,SBD,M,
Boys,51.71,4,Jacob Miller,Louise,49.8,54.43,49.9,86.18,190.51,Single-ply,SBD,M,
Boys,51.71,DQ,Trevor Lutringer,Louise,50.53,,,,,Single-ply,SBD,M,
Boys,55.79,1,Jordan Garcia #7,El Maton Tidehaven,53.98,124.74,68.04,145.15,337.93,Single-ply,SBD,M,
Boys,55.79,2,John Acosta,Victoria West,54.75,111.13,79.38,147.42,337.93,Single-ply,SBD,M,
Boys,55.79,3,Brandon Perez,Victoria West,54.75,102.06,61.23,111.13,274.42,Single-ply,SBD,M,
Boys,55.79,DQ,Amarian Scott,Victoria West,55.79,,,,,Single-ply,SBD,M,
Boys,59.87,1,Ceyth Grevey,Victoria East,59.56,165.56,95.25,192.78,453.59,Single-ply,SBD,M,
Boys,59.87,2,Connor Claxton,El Maton Tidehaven,58.51,124.74,68.04,136.08,328.85,Single-ply,SBD,M,
Boys,59.87,3,Anthony Nguyen,Palacios,59.01,92.99,65.77,142.88,301.64,Single-ply,SBD,M,
Boys,59.87,4,Jesse Norwood,Needville,57.7,115.67,68.04,113.4,297.1,Single-ply,SBD,M,
Boys,59.87,5,Jonathan Lopez,Palacios,57.83,88.45,58.97,124.74,272.16,Single-ply,SBD,M,
Boys,67.13,1,Anthony Garza,Victoria West,66.36,167.83,106.59,183.7,458.13,Single-ply,SBD,M,
Boys,67.13,2,Bryce Duke,Palacios,67.09,167.83,92.99,188.24,449.06,Single-ply,SBD,M,
Boys,67.13,3,Kadin Nunez,Bay City,66.9,142.88,83.91,179.17,405.97,Single-ply,SBD,M,
Boys,67.13,4,Blayke Yeager,Louise,65,145.15,88.45,170.1,403.7,Single-ply,SBD,M,
Boys,67.13,5,Jacob Arguijo,Palacios,64.46,136.08,92.99,149.69,378.75,Single-ply,SBD,M,
Boys,67.13,6,Josh Henry,Victoria St. Joseph,65.45,133.81,97.52,142.88,374.21,Single-ply,SBD,M,
Boys,67.13,7,Jason Carmona,Victoria East,63.28,138.35,77.11,131.54,347,Single-ply,SBD,M,
Boys,67.13,8,Derek Massey,El Maton Tidehaven,65,124.74,70.31,149.69,344.73,Single-ply,SBD,M,
Boys,67.13,9,Tim Sexton,El Maton Tidehaven,64.41,120.2,77.11,142.88,340.19,Single-ply,SBD,M,
Boys,67.13,10,Benjamin Blanco,Louise,62.82,88.45,68.04,127.01,283.5,Single-ply,SBD,M,
Boys,67.13,11,Alan Rosas,Louise,67.13,88.45,63.5,127.01,278.96,Single-ply,SBD,M,
Boys,74.84,1,Xain Dusek,El Maton Tidehaven,73.53,226.8,129.27,183.7,539.77,Single-ply,SBD,M,
Boys,74.84,2,Seth Birmingham,Victoria West,74.16,199.58,113.4,165.56,478.54,Single-ply,SBD,M,
Boys,74.84,3,Gabe Weaver,Victoria St. Joseph,72.35,133.81,79.38,154.22,367.41,Single-ply,SBD,M,
Boys,74.84,4,Andrew Morris,Victoria St. Joseph,72.44,138.35,72.57,145.15,356.07,Single-ply,SBD,M,
Boys,74.84,5,Israel Ruvalcaba,Needville,71.58,136.08,61.23,127.01,324.32,Single-ply,SBD,M,
Boys,74.84,6,Gavin Duke,Palacios,67.86,92.99,65.77,140.61,299.37,Single-ply,SBD,M,
Boys,74.84,DQ,Joshua Murphy,Needville,74.34,97.52,52.16,,,Single-ply,SBD,M,
Boys,74.84,DQ,Alan Vega,Needville,71.67,138.35,,,,Single-ply,SBD,M,
Boys,82.1,1,Seth Neibrandt,Victoria West,81.42,217.72,120.2,208.65,546.58,Single-ply,SBD,M,
Boys,82.1,2,Thomas Lopez,Victoria St. Joseph,79.97,176.9,95.25,190.51,462.66,Single-ply,SBD,M,
Boys,82.1,3,Randal Delgado,Victoria East,79.7,174.63,111.13,158.76,444.52,Single-ply,SBD,M,
Boys,82.1,4,Daniel Martinez,Victoria East,80.74,167.83,92.99,142.88,403.7,Single-ply,SBD,M,
Boys,82.1,5,Roy Arrambide,Louise,82.1,127.01,74.84,140.61,342.46,Single-ply,SBD,M,
Boys,89.81,1,Hunter Brewster,Needville,89.81,204.12,120.2,192.78,517.1,Single-ply,SBD,M,
Boys,89.81,2,Gabriel Roemer,Palacios,85.96,158.76,70.31,183.7,412.77,Single-ply,SBD,M,
Boys,89.81,3,Hersamo Guerrero,Palacios,86.05,151.95,102.06,158.76,412.77,Single-ply,SBD,M,
Boys,89.81,4,Marco Hernandez,Needville,87.45,167.83,88.45,154.22,410.5,Single-ply,SBD,M,
Boys,89.81,5,Jonathan Orgis,Victoria East,88,147.42,92.99,158.76,399.16,Single-ply,SBD,M,
Boys,89.81,6,Sean Sneath,El Maton Tidehaven,89.36,136.08,90.72,161.03,387.82,Single-ply,SBD,M,
Boys,89.81,7,Kyler Estrada,Bay City,89.04,108.86,70.31,124.74,303.91,Single-ply,SBD,M,
Boys,89.81,DQ,Damian Gundelach,Louise,88.36,102.06,,,,Single-ply,SBD,M,
Boys,99.79,1,Hunter Saavedra,El Maton Tidehaven,96.16,197.31,129.27,201.85,528.44,Single-ply,SBD,M,
Boys,99.79,2,Jaden Galvan,Victoria East,96.25,192.78,95.25,206.38,494.42,Single-ply,SBD,M,
Boys,99.79,3,Taylor Rickaway,El Maton Tidehaven,95.3,188.24,113.4,190.51,492.15,Single-ply,SBD,M,
Boys,99.79,4,Glenn Ihde,Bay City,93.12,185.97,99.79,190.51,476.27,Single-ply,SBD,M,
Boys,99.79,5,Xavier Salazar,Victoria East,92.49,151.95,102.06,199.58,453.59,Single-ply,SBD,M,
Boys,99.79,6,Bryan Resindez,El Maton Tidehaven,98.88,176.9,102.06,174.63,453.59,Single-ply,SBD,M,
Boys,99.79,7,Ethan Resendez,Louise,91.44,161.03,92.99,188.24,442.25,Single-ply,SBD,M,
Boys,99.79,8,Dylan Vu,Palacios,92.17,142.88,83.91,174.63,401.43,Single-ply,SBD,M,
Boys,99.79,9,Marucio Hurtado,Palacios,93.8,124.74,77.11,142.88,344.73,Single-ply,SBD,M,
Boys,99.79,10,Kyrean Albright,Louise,94.85,113.4,63.5,154.22,331.12,Single-ply,SBD,M,
Boys,99.79,DQ,Ryan Cain,Victoria East,93.62,254.01,122.47,,,Single-ply,SBD,M,
Boys,109.77,1,Daniel Gaona III,Louise,104.14,231.33,147.42,233.6,612.35,Single-ply,SBD,M,
Boys,109.77,2,Ray Buckner,Victoria West,105.05,215.46,129.27,249.48,594.21,Single-ply,SBD,M,
Boys,109.77,3,Damian Diaz,Victoria West,106.28,226.8,115.67,226.8,569.26,Single-ply,SBD,M,
Boys,109.77,4,Logan MacLennan,Bay City,100.52,170.1,113.4,195.04,478.54,Single-ply,SBD,M,
Boys,109.77,5,Tate Gustavus,Needville,108.73,174.63,113.4,170.1,458.13,Single-ply,SBD,M,
Boys,109.77,6,Andres Bermudez,Bay City,108.68,165.56,102.06,154.22,421.84,Single-ply,SBD,M,
Boys,109.77,7,Wyatt Lee,El Maton Tidehaven,107.73,154.22,95.25,147.42,396.89,Single-ply,SBD,M,
Boys,124.74,1,Landon Henke,Needville,118.98,317.51,181.44,256.28,755.23,Single-ply,SBD,M,
Boys,124.74,2,Jerry Johnson,El Maton Tidehaven,117.07,272.16,161.03,226.8,659.98,Single-ply,SBD,M,
Boys,124.74,3,Christopher Vasquez,Louise,122.74,249.48,117.93,215.46,582.87,Single-ply,SBD,M,
Boys,124.74,4,Issac Allen,Bay City,119.29,208.65,127.01,183.7,519.36,Single-ply,SBD,M,
Boys,124.74,5,Marco Mata,Bay City,117.3,167.83,92.99,165.56,426.38,Single-ply,SBD,M,
Boys,124.74,6,Victor Muniz,Needville,113.62,147.42,102.06,149.69,399.16,Single-ply,SBD,M,
Boys,124.74,DQ,Hayden Lawrence,Victoria West,111.77,,,,,Single-ply,SBD,M,
Boys,139.71,1,Keegan Carrillo,El Maton Tidehaven,138.8,242.67,149.69,217.72,610.08,Single-ply,SBD,M,
Boys,139.71,2,Cooper Kliem,Victoria East,126.19,249.48,124.74,192.78,566.99,Single-ply,SBD,M,
Boys,139.71,3,Blake Frausto,Bay City,125.55,163.29,83.91,183.7,430.91,Single-ply,SBD,M,
Boys,139.71,4,Gabe Medina,Victoria St. Joseph,126.73,158.76,102.06,167.83,428.64,Single-ply,SBD,M,
Boys,139.71+,1,Blake Boenisch,Needville,162.11,303.91,204.12,272.16,780.18,Single-ply,SBD,M,
Boys,,NS,Matthew Torres,Needville,,,,,,Single-ply,SBD,M,
Boys,,NS,Martin Estudillo,Palacios,,,,,,Single-ply,SBD,M,
Boys,,NS,Monroe Hobbs,Victoria St. Joseph,,,,,,Single-ply,SBD,M,
Boys,,NS,Jason Duran,Victoria St. Joseph,,,,,,Single-ply,SBD,M,
Boys,,NS,John Cantu,Victoria St. Joseph,,,,,,Single-ply,SBD,M,
Boys,,NS,Juan Garcia,Bay City,,,,,,Single-ply,SBD,M,
Boys,,NS,Ruben Alameda,Bay City,,,,,,Single-ply,SBD,M,
Boys,,NS,Juan Andrade,Bay City,,,,,,Single-ply,SBD,M,
Boys,,NS,Louiscarlos Islas,Victoria West,,,,,,Single-ply,SBD,M,
