Division,WeightClassKg,Place,Name,Team,BodyweightKg,Best3SquatKg,Best3BenchKg,Best3DeadliftKg,TotalKg,Equipment,Event,Sex,BirthDate
Boys,59.87,1,Kenneth Allison,Queen City,58.88,149.69,74.84,151.95,376.48,Single-ply,SBD,M,
Boys,59.87,2,Chandler Vincent,Overton,57.61,97.52,56.7,92.99,247.21,Single-ply,SBD,M,
Boys,67.13,1,Delvon Federick,Queen City,66.22,183.7,74.84,181.44,439.98,Single-ply,SBD,M,
Boys,67.13,2,Christian Nard,Queen City,66.77,163.29,83.91,163.29,410.5,Single-ply,SBD,M,
Boys,67.13,3,Charlie Kirkland-Campbell,Queen City,63.23,129.27,74.84,147.42,351.53,Single-ply,SBD,M,
Boys,74.84,1,Trayson Wright,Overton,73.39,201.85,106.59,199.58,508.02,Single-ply,SBD,M,
Boys,74.84,2,James Obenoskey,Queen City,73.57,158.76,97.52,165.56,421.84,Single-ply,SBD,M,
Boys,74.84,3,Kaden Satterfield,Queen City,69.08,158.76,77.11,170.1,405.97,Single-ply,SBD,M,
Boys,74.84,4,Logan Niedens,Queen City,68.67,120.2,81.65,129.27,331.12,Single-ply,SBD,M,
Boys,82.1,1,Mason Stringer,Queen City,79.92,142.88,74.84,120.2,337.93,Single-ply,SBD,M,
Boys,89.81,1,Aaron Jones,Queen City,89.36,174.63,74.84,163.29,412.77,Single-ply,SBD,M,
Boys,99.79,1,Tanner McCarthy,Queen City,93.8,197.31,74.84,174.63,446.79,Single-ply,SBD,M,
Boys,99.79,2,Octavio Resendiz,Clarksville,96.8,142.88,95.25,163.29,401.43,Single-ply,SBD,M,
Boys,99.79,3,Josh Brown,Overton,95.53,111.13,70.31,111.13,292.57,Single-ply,SBD,M,
Boys,109.77,1,Jordan Menard,Overton,101.33,219.99,120.2,249.48,589.67,Single-ply,SBD,M,
Boys,109.77,2,Daniel Jones,Queen City,108.41,183.7,92.99,156.49,433.18,Single-ply,SBD,M,
Boys,109.77,3,Josh Self,Overton,105.78,133.81,65.77,151.95,351.53,Single-ply,SBD,M,
Boys,139.71,1,Trevan Wright,Overton,132.36,201.85,106.59,183.7,492.15,Single-ply,SBD,M,
Boys,139.71,2,Billy Stewart,Clarksville,131.63,156.49,104.33,181.44,442.25,Single-ply,SBD,M,
Boys,139.71+,1,Cedric Davis,Queen City,176.45,294.84,161.03,242.67,698.53,Single-ply,SBD,M,
