Division,WeightClassKg,Place,Name,Team,BodyweightKg,Best3SquatKg,Best3BenchKg,Best3DeadliftKg,TotalKg,Equipment,Event,Sex,BirthDate
Boys,51.71,1,Michael Contreras,Alice,51.62,111.13,79.38,136.08,326.59,Single-ply,SBD,M,
Boys,59.87,1,Austin Lopez,Robstown,59.78,165.56,90.72,172.37,428.64,Single-ply,SBD,M,
Boys,67.13,1,Luke Davis,Sinton,65.77,195.04,117.93,206.38,519.36,Single-ply,SBD,M,
Boys,67.13,2,Nic Garza,Alice,66.41,147.42,74.84,149.69,371.95,Single-ply,SBD,M,
Boys,82.1,1,Jerimiah Nino,Sinton,80.92,192.78,120.2,197.31,510.29,Single-ply,SBD,M,
Boys,82.1,2,Jon Alex Gonzalez,Alice,76.11,179.17,136.08,179.17,494.42,Single-ply,SBD,M,
Boys,89.81,1,Robert Torres,Sinton,85.28,254.01,142.88,231.33,628.23,Single-ply,SBD,M,
Boys,89.81,2,Logan Dewald,Sinton,89.36,240.4,120.2,240.4,601.01,Single-ply,SBD,M,
Boys,89.81,3,Alexus Martinez,Robstown,88.99,142.88,95.25,165.56,403.7,Single-ply,SBD,M,
Boys,89.81,4,James Lebao,Sinton,83.01,142.88,79.38,142.88,365.14,Single-ply,SBD,M,
Boys,89.81,5,Anthony Rivas,Sinton,85.73,142.88,79.38,142.88,365.14,Single-ply,SBD,M,
Boys,99.79,1,Israel Espinoza,Robstown,98.88,176.9,124.74,163.29,464.93,Single-ply,SBD,M,
Boys,109.77,1,Marcus Perez,Alice,103.87,188.24,115.67,183.7,487.61,Single-ply,SBD,M,
Boys,109.77,2,Diego Trevino,Alice,102.06,174.63,92.99,124.74,392.36,Single-ply,SBD,M,
Boys,124.74,DQ,Alenzar Trejo,Alice,122.02,,,,,Single-ply,SBD,M,
Boys,139.71,1,Nate Martinez,Sinton,126.55,274.42,183.7,229.06,687.19,Single-ply,SBD,M,
Boys,139.71,2,Paul Pena,Robstown,126.1,274.42,170.1,215.46,659.98,Single-ply,SBD,M,
Boys,139.71,3,Elijah Brown,Sinton,129.73,274.42,151.95,233.6,659.98,Single-ply,SBD,M,
Boys,139.71,4,Ben Oyervides,Robstown,136.53,201.85,149.69,183.7,535.24,Single-ply,SBD,M,
Boys,139.71,DQ,Mark Pena,Robstown,134.26,,,,,Single-ply,SBD,M,
Boys,139.71,DQ,Samuel Morales,Sinton,131.09,206.38,,,,Single-ply,SBD,M,
