Division,WeightClassKg,Place,Name,Team,BodyweightKg,Best3SquatKg,Best3BenchKg,Best3DeadliftKg,TotalKg,Equipment,Event,Sex,BirthDate
Girls,44.23,1,Makinzey Saldivar,San Saba,44.09,74.84,31.75,72.57,179.17,Single-ply,SBD,F,
Girls,44.23,2,Jozlynnn Medley,Fredericksburg,43.82,52.16,31.75,72.57,156.49,Single-ply,SBD,F,
Girls,47.85,1,Abby Smith,Burnet,47.63,83.91,49.9,99.79,233.6,Single-ply,SBD,F,
Girls,47.85,2,Nimsi Vergara,Lampasas,47.63,70.31,34.02,88.45,192.78,Single-ply,SBD,F,
Girls,47.85,3,Kylee Rutledge,Lampasas,47.08,65.77,43.09,74.84,183.7,Single-ply,SBD,F,
Girls,51.94,1,Kelaiah Wehmeyer,Fredericksburg,51.89,68.04,43.09,81.65,192.78,Single-ply,SBD,F,
Girls,51.94,2,Graeson Fanning,Fredericksburg,48.81,68.04,38.56,83.91,190.51,Single-ply,SBD,F,
Girls,51.94,3,Anna Burgess,Lampasas,50.26,61.23,36.29,77.11,174.63,Single-ply,SBD,F,
Girls,51.94,4,Natalie Cuevas,San Saba,49.9,70.31,24.95,68.04,163.29,Single-ply,SBD,F,
Girls,56.02,1,Alyssa Ayers,Lampasas,53.16,145.15,90.72,136.08,371.95,Single-ply,SBD,F,
Girls,56.02,2,Nica Hernandez,Brady,55.52,95.25,40.82,99.79,235.87,Single-ply,SBD,F,
Girls,56.02,3,Kylee Dossey,Brady,55.34,97.52,34.02,90.72,222.26,Single-ply,SBD,F,
Girls,56.02,4,Mariah Case,Brady,53.16,90.72,45.36,81.65,217.72,Single-ply,SBD,F,
Girls,56.02,5,Brooke Coffman,Lampasas,54.79,70.31,43.09,90.72,204.12,Single-ply,SBD,F,
Girls,56.02,6,Jewelia Gentry,San Saba,55.47,58.97,31.75,65.77,156.49,Single-ply,SBD,F,
Girls,60.1,1,Yasmine Morado,Brady,59.96,170.1,83.91,145.15,399.16,Single-ply,SBD,F,
Girls,60.1,2,Analysia Fuentes,Brady,59.33,120.2,72.57,127.01,319.78,Single-ply,SBD,F,
Girls,60.1,3,Brianna Miller,Lampasas,57.15,99.79,65.77,113.4,278.96,Single-ply,SBD,F,
Girls,60.1,4,Zayda Gorecki,Lampasas,59.96,104.33,54.43,113.4,272.16,Single-ply,SBD,F,
Girls,60.1,5,Kate Kenisky,Fredericksburg,59.24,99.79,52.16,106.59,258.55,Single-ply,SBD,F,
Girls,60.1,6,Yasmeen Ramirez,Brady,60.06,92.99,38.56,92.99,224.53,Single-ply,SBD,F,
Girls,60.1,7,Tate Brown,Lampasas,59.24,88.45,47.63,83.91,219.99,Single-ply,SBD,F,
Girls,60.1,8,Emily Hobson,Lometa,57.52,63.5,31.75,77.11,172.37,Single-ply,SBD,F,
Girls,60.1,DQ,Jordan Jones,Marble Falls,58.06,52.16,,,,Single-ply,SBD,F,
Girls,67.36,1,Hailey Tindell,Burnet,65.77,122.47,72.57,122.47,317.51,Single-ply,SBD,F,
Girls,67.36,2,Madison Pitcox,Brady,66.41,115.67,65.77,92.99,274.42,Single-ply,SBD,F,
Girls,67.36,3,Hattie Alexander,Marble Falls,64.86,102.06,49.9,113.4,265.35,Single-ply,SBD,F,
Girls,67.36,4,Emily Brister,Lampasas,66.86,92.99,54.43,95.25,242.67,Single-ply,SBD,F,
Girls,67.36,5,Carleigh Irmie,Burnet,65.32,77.11,31.75,83.91,192.78,Single-ply,SBD,F,
Girls,67.36,6,Kylie Tullos,Burnet,67.13,56.7,24.95,77.11,158.76,Single-ply,SBD,F,
Girls,67.36,7,Emma Seeley,Marble Falls,65.5,54.43,24.95,61.23,140.61,Single-ply,SBD,F,
Girls,67.36,DQ,Isabel Ybarra,Lampasas,63.23,,,,,Single-ply,SBD,F,
Girls,75.07,1,Kynedi Isham,San Saba,69.04,124.74,68.04,115.67,308.44,Single-ply,SBD,F,
Girls,75.07,2,Amy Tindell,Burnet,68.04,113.4,65.77,120.2,299.37,Single-ply,SBD,F,
Girls,75.07,3,Natalie Huff,Fredericksburg,70.31,99.79,58.97,102.06,260.82,Single-ply,SBD,F,
Girls,75.07,DQ,Maggie Fletcher,Lampasas,73.94,106.59,56.7,,,Single-ply,SBD,F,
Girls,82.33,1,Rylea Whitus,Burnet,82.1,129.27,83.91,129.27,342.46,Single-ply,SBD,F,
Girls,82.33,2,Teagen Tappe,Burnet,79.83,111.13,63.5,124.74,299.37,Single-ply,SBD,F,
Girls,82.33,3,Camilla Lopez,Lampasas,81.47,106.59,52.16,102.06,260.82,Single-ply,SBD,F,
Girls,82.33,4,Anais Lazos,Marble Falls,82.1,90.72,56.7,113.4,260.82,Single-ply,SBD,F,
Girls,82.33,5,Brynlie Tappe,Burnet,82.1,74.84,47.63,95.25,217.72,Single-ply,SBD,F,
Girls,90.04,1,Abagail Ybarra,Marble Falls,83.91,129.27,56.7,127.01,312.98,Single-ply,SBD,F,
Girls,90.04,2,Diandra Hernandez,Brady,88.99,113.4,45.36,117.93,276.69,Single-ply,SBD,F,
Girls,100.02,1,Landri Sagebiel,Fredericksburg,92.22,145.15,77.11,163.29,385.55,Single-ply,SBD,F,
Girls,100.02,2,Lluvia Loredo,Burnet,97.52,122.47,52.16,113.4,288.03,Single-ply,SBD,F,
Girls,100.02,3,Austyn Graham,San Saba,100.02,99.79,47.63,102.06,249.48,Single-ply,SBD,F,
Girls,117.71,1,Shaden Soto,Fredericksburg,104.42,102.06,63.5,97.52,263.08,Single-ply,SBD,F,
