Division,WeightClassKg,Place,Name,Team,BodyweightKg,Best3SquatKg,Best3BenchKg,Best3DeadliftKg,TotalKg,Equipment,Event,Sex
Boys,55.79,1,Arian Queriman,White Settlement Brewer,55.11,170.1,74.84,156.49,401.43,Single-ply,SBD,M
Boys,55.79,2,Baird Jernigan,Aledo,55.34,88.45,58.97,117.93,265.35,Single-ply,SBD,M
Boys,55.79,3,Logan Thomas,Aledo,54.88,90.72,54.43,108.86,254.01,Single-ply,SBD,M
Boys,59.87,1,Otis Jackson,Aledo,59.74,127.01,88.45,147.42,362.87,Single-ply,SBD,M
Boys,59.87,2,Jacob Densmore,Fort Worth Chisholm Trail,59.42,127.01,79.38,142.88,349.27,Single-ply,SBD,M
Boys,59.87,3,Justin Straw,Springtown,59.6,117.93,95.25,136.08,349.27,Single-ply,SBD,M
Boys,59.87,4,John Davis #9,White Settlement Brewer,58.33,136.08,72.57,124.74,333.39,Single-ply,SBD,M
Boys,59.87,5,Kamron Lunsford,Springtown,59.69,129.27,79.38,122.47,331.12,Single-ply,SBD,M
Boys,67.13,1,Mariano Arriaga,Aledo,67.04,195.04,111.13,197.31,503.49,Single-ply,SBD,M
Boys,67.13,2,Joe Rousseau,Aledo,66.45,147.42,104.33,192.78,444.52,Single-ply,SBD,M
Boys,67.13,3,Austin Lambert,White Settlement Brewer,64.95,147.42,86.18,185.97,419.57,Single-ply,SBD,M
Boys,67.13,4,Steve Burns,Aledo,63.59,140.61,92.99,170.1,403.7,Single-ply,SBD,M
Boys,67.13,5,Michael McCoy,Springtown,66.18,131.54,97.52,156.49,385.55,Single-ply,SBD,M
Boys,67.13,6,Austin Ritchey,Springtown,66.32,136.08,102.06,145.15,383.29,Single-ply,SBD,M
Boys,67.13,7,Moise Mpala,Fort Worth Chisholm Trail,66.81,138.35,90.72,142.88,371.95,Single-ply,SBD,M
Boys,74.84,1,Tatum Price #1,Aledo,74.48,213.19,131.54,208.65,553.38,Single-ply,SBD,M
Boys,74.84,2,Aaron Foster,Springtown,73.75,165.56,115.67,192.78,474,Single-ply,SBD,M
Boys,74.84,3,Tyler Sarriera,White Settlement Brewer,73.89,158.76,120.2,176.9,455.86,Single-ply,SBD,M
Boys,74.84,4,Harrison Jones,Aledo,74.62,151.95,111.13,170.1,433.18,Single-ply,SBD,M
Boys,74.84,5,Elijah Valencia,Aledo,71.94,145.15,97.52,170.1,412.77,Single-ply,SBD,M
Boys,74.84,6,Jesus Najera,Springtown,69.26,158.76,102.06,145.15,405.97,Single-ply,SBD,M
Boys,74.84,7,Cj Houston,White Settlement Brewer,70.31,161.03,92.99,149.69,403.7,Single-ply,SBD,M
Boys,74.84,8,Jaden Fisher,Fort Worth Chisholm Trail,69.4,149.69,77.11,158.76,385.55,Single-ply,SBD,M
Boys,74.84,9,Dawson Adams,Springtown,74.34,129.27,92.99,161.03,383.29,Single-ply,SBD,M
Boys,74.84,10,Ramiro Gonzalez,White Settlement Brewer,70.31,102.06,83.91,102.06,288.03,Single-ply,SBD,M
Boys,74.84,DQ,Zaiid Mares,White Settlement Brewer,73.94,,92.99,120.2,,Single-ply,SBD,M
Boys,82.1,1,Noah Loth,Aledo,82.01,163.29,115.67,185.97,464.93,Single-ply,SBD,M
Boys,82.1,2,Brandon Ramos,White Settlement Brewer,81.56,149.69,97.52,172.37,419.57,Single-ply,SBD,M
Boys,82.1,3,Garrett Maile,Fort Worth Chisholm Trail,75.75,149.69,102.06,158.76,410.5,Single-ply,SBD,M
Boys,82.1,4,Riley Davis #1,Aledo,77.11,129.27,104.33,149.69,383.29,Single-ply,SBD,M
Boys,82.1,5,Montrail Cushoinberry,White Settlement Brewer,80.29,149.69,104.33,,254.01,Single-ply,SB,M
Boys,89.81,1,Jaquan Cummings,Springtown,84.69,183.7,124.74,240.4,548.85,Single-ply,SBD,M
Boys,89.81,2,Weston Reese,Aledo,85.82,190.51,129.27,204.12,523.9,Single-ply,SBD,M
Boys,89.81,3,Carson Cato,White Settlement Brewer,89.63,183.7,131.54,201.85,517.1,Single-ply,SBD,M
Boys,89.81,4,Cameron Rickett,Springtown,89.04,204.12,111.13,199.58,514.83,Single-ply,SBD,M
Boys,89.81,5,Christian McClain,Fort Worth Chisholm Trail,89.36,158.76,120.2,208.65,487.61,Single-ply,SBD,M
Boys,89.81,6,Ryan Goodenough,Aledo,89.68,181.44,127.01,176.9,485.34,Single-ply,SBD,M
Boys,89.81,7,Trent Lowry,Fort Worth Chisholm Trail,84.19,149.69,86.18,181.44,417.3,Single-ply,SBD,M
Boys,89.81,8,Caden Anderson,Aledo,85.28,136.08,106.59,158.76,401.43,Single-ply,SBD,M
Boys,89.81,9,Kody Clark,Fort Worth Chisholm Trail,89.49,142.88,77.11,158.76,378.75,Single-ply,SBD,M
Boys,99.79,1,James Webb,Fort Worth Chisholm Trail,90.72,195.04,92.99,199.58,487.61,Single-ply,SBD,M
Boys,99.79,2,Timothy Worley,White Settlement Brewer,97.7,183.7,115.67,188.24,487.61,Single-ply,SBD,M
Boys,99.79,3,Jason Byrne #2,Aledo,93.35,158.76,113.4,181.44,453.59,Single-ply,SBD,M
Boys,99.79,4,Danny Simmons,Fort Worth Chisholm Trail,95.25,167.83,95.25,174.63,437.72,Single-ply,SBD,M
Boys,99.79,5,Angel Flores,Springtown,99.56,154.22,113.4,170.1,437.72,Single-ply,SBD,M
Boys,109.77,1,Martin Gutierrez,Springtown,108,210.92,138.35,215.46,564.72,Single-ply,SBD,M
Boys,109.77,2,Tyler Holder,Springtown,103.33,185.97,111.13,208.65,505.76,Single-ply,SBD,M
Boys,109.77,3,Brent Rose,Springtown,103.51,176.9,131.54,192.78,501.22,Single-ply,SBD,M
Boys,109.77,4,Matthew Bell,Aledo,105.87,181.44,111.13,195.04,487.61,Single-ply,SBD,M
Boys,109.77,5,Hayden Herfkens,Fort Worth Chisholm Trail,107.95,167.83,115.67,188.24,471.74,Single-ply,SBD,M
Boys,109.77,6,Gavin Greenfield,Fort Worth Chisholm Trail,104.55,190.51,92.99,181.44,464.93,Single-ply,SBD,M
Boys,109.77,7,Haden Chenault,Aledo,103.51,163.29,104.33,176.9,444.52,Single-ply,SBD,M
Boys,124.74,1,Isaac Vielima,White Settlement Brewer,123.97,251.74,142.88,231.33,625.96,Single-ply,SBD,M
Boys,124.74,2,Logan Michael,Aledo,112.94,226.8,129.27,215.46,571.53,Single-ply,SBD,M
Boys,124.74,3,Maverick Roberts,White Settlement Brewer,117.93,195.04,127.01,233.6,555.65,Single-ply,SBD,M
Boys,124.74,4,Juan Garcia,Fort Worth Chisholm Trail,117.93,199.58,111.13,199.58,510.29,Single-ply,SBD,M
Boys,124.74,5,Hunter Baldwin,Springtown,112.67,176.9,113.4,197.31,487.61,Single-ply,SBD,M
Boys,124.74,6,Zack Prestwood,Aledo,116.71,183.7,117.93,181.44,483.08,Single-ply,SBD,M
Boys,124.74,7,Grant Jefferis,Aledo,120.29,167.83,102.06,158.76,428.64,Single-ply,SBD,M
Boys,124.74,8,Ryan Shiller,Aledo,118.12,158.76,83.91,136.08,378.75,Single-ply,SBD,M
Boys,124.74+,1,Zac Haynes,Aledo,127.01,249.48,149.69,213.19,612.35,Single-ply,SBD,M
Boys,124.74+,2,James Ybarra,Fort Worth Chisholm Trail,139.84,226.8,115.67,197.31,539.77,Single-ply,SBD,M
Boys,124.74+,3,Barry Gorman,Fort Worth Chisholm Trail,135.35,190.51,106.59,167.83,464.93,Single-ply,SBD,M
Boys,124.74+,4,Alex Striejewske,Aledo,133.9,158.76,104.33,170.1,433.18,Single-ply,SBD,M
Boys,124.74+,5,Cameron Hutcherson,White Settlement Brewer,129.27,136.08,90.72,181.44,408.23,Single-ply,SBD,M
Boys,124.74+,6,Daniel Macias,Springtown,142.88,142.88,88.45,154.22,385.55,Single-ply,SBD,M
Boys,124.74+,7,Jalen Lee,White Settlement Brewer,127.01,124.74,86.18,147.42,358.34,Single-ply,SBD,M
