Division,WeightClassKg,Place,Name,Team,BodyweightKg,Best3SquatKg,Best3BenchKg,Best3DeadliftKg,TotalKg,Equipment,Event,Sex,BirthDate
Girls,44.23,1,Indiyah Aldridge,Texarkana Liberty-Eylau,44.18,106.59,61.23,113.4,281.23,Single-ply,SBD,F,
Girls,44.23,2,Alecs Burch,Quinlan Ford,43.45,102.06,49.9,113.4,265.35,Single-ply,SBD,F,
Girls,44.23,3,Jolea Crow,Caddo Mills,43.73,90.72,45.36,113.4,249.48,Single-ply,SBD,F,
Girls,44.23,4,Fe Terrell,Gilmer,44.09,97.52,45.36,90.72,233.6,Single-ply,SBD,F,
Girls,44.23,5,Madison Bradshaw,Tyler Chapel Hill,43.09,92.99,40.82,97.52,231.33,Single-ply,SBD,F,
Girls,44.23,6,Diana Alvarez,Paris,44.09,83.91,47.63,95.25,226.8,Single-ply,SBD,F,
Girls,44.23,7,Ashlyn Long,Rusk,42.73,95.25,38.56,88.45,222.26,Single-ply,SBD,F,
Girls,44.23,8,Shamyia Holt,Paris,42.82,81.65,47.63,90.72,219.99,Single-ply,SBD,F,
Girls,44.23,9,Drue Bowers,Bullard,44.09,81.65,40.82,77.11,199.58,Single-ply,SBD,F,
Girls,44.23,10,Rylann Hensley,Athens,42.73,52.16,29.48,63.5,145.15,Single-ply,SBD,F,
Girls,47.85,1,Kyleigh Pate,Gilmer,47.72,117.93,63.5,95.25,276.69,Single-ply,SBD,F,
Girls,47.85,2,Whitleigh Hayes,Lindale,47.36,104.33,68.04,95.25,267.62,Single-ply,SBD,F,
Girls,47.85,3,Krista Rash,Gilmer,47.81,108.86,49.9,102.06,260.82,Single-ply,SBD,F,
Girls,47.85,4,Diana Farfan,Paris,44.91,97.52,56.7,86.18,240.4,Single-ply,SBD,F,
Girls,47.85,5,Jennifer Sanchez,Quinlan Ford,46.63,86.18,34.02,106.59,226.8,Single-ply,SBD,F,
Girls,47.85,6,Barbara Ruiz,Kaufman,45.63,79.38,43.09,88.45,210.92,Single-ply,SBD,F,
Girls,47.85,7,Taylor Soong,Brownsboro,46.9,77.11,34.02,86.18,197.31,Single-ply,SBD,F,
Girls,47.85,8,Cecilia Rodriguez,Quinlan Ford,46.27,83.91,27.22,79.38,190.51,Single-ply,SBD,F,
Girls,47.85,9,Ella Morton,Rusk,45.18,77.11,36.29,74.84,188.24,Single-ply,SBD,F,
Girls,47.85,10,Breeana Echols,Mabank,45.09,63.5,40.82,81.65,185.97,Single-ply,SBD,F,
Girls,47.85,11,KayLynn Morris,Rusk,45.72,68.04,34.02,77.11,179.17,Single-ply,SBD,F,
Girls,47.85,12,Kamerin Ortiz,Bullard,47.54,47.63,29.48,74.84,151.95,Single-ply,SBD,F,
Girls,47.85,13,Alyssa Whitney,Athens,45.27,61.23,22.68,52.16,136.08,Single-ply,SBD,F,
Girls,51.94,1,Tristan Dykes,Brownsboro,51.44,147.42,77.11,106.59,331.12,Single-ply,SBD,F,
Girls,51.94,2,Tk Marshall,Paris,51.17,117.93,72.57,113.4,303.91,Single-ply,SBD,F,
Girls,51.94,3,Alexa Morones,Wills Point,51.62,108.86,40.82,108.86,258.55,Single-ply,SBD,F,
Girls,51.94,4,Makayla McHenry,Gilmer,51.89,99.79,52.16,106.59,258.55,Single-ply,SBD,F,
Girls,51.94,5,Erika Holt,Paris,49.08,99.79,49.9,106.59,256.28,Single-ply,SBD,F,
Girls,51.94,6,Alondra Campa,Kaufman,49.17,95.25,47.63,102.06,244.94,Single-ply,SBD,F,
Girls,51.94,7,Alondra Yanes,Quinlan Ford,51.89,83.91,54.43,102.06,240.4,Single-ply,SBD,F,
Girls,51.94,8,Lesley Medina,Athens,51.35,92.99,43.09,102.06,238.14,Single-ply,SBD,F,
Girls,51.94,9,Peyton Cook,Paris,51.17,102.06,45.36,88.45,235.87,Single-ply,SBD,F,
Girls,51.94,10,Savannah McRight,Rusk,50.62,65.77,29.48,79.38,174.63,Single-ply,SBD,F,
Girls,51.94,DQ,Ivie Allmon,Paris North Lamar,49.71,,,,,Single-ply,SBD,F,
Girls,56.02,1,Madilynn Essary,Brownsboro,55.34,145.15,79.38,138.35,362.87,Single-ply,SBD,F,
Girls,56.02,2,Sydnee Parker,Gilmer,54.25,117.93,77.11,142.88,337.93,Single-ply,SBD,F,
Girls,56.02,3,Kamry Oliver,Paris North Lamar,55.07,127.01,74.84,136.08,337.93,Single-ply,SBD,F,
Girls,56.02,4,Tichelle Meador,Quinlan Ford,55.97,117.93,58.97,129.27,306.17,Single-ply,SBD,F,
Girls,56.02,5,Victoria Shephard,Mabank,55.61,115.67,65.77,122.47,303.91,Single-ply,SBD,F,
Girls,56.02,6,Rebekah Beard,Lindale,54.16,111.13,70.31,113.4,294.84,Single-ply,SBD,F,
Girls,56.02,7,Baleigh Cashion,Paris,55.61,113.4,61.23,104.33,278.96,Single-ply,SBD,F,
Girls,56.02,8,Imoni Hodge,Texarkana Liberty-Eylau,54.07,113.4,58.97,104.33,276.69,Single-ply,SBD,F,
Girls,56.02,9,Kaylee King,Wills Point,54.7,99.79,56.7,115.67,272.16,Single-ply,SBD,F,
Girls,56.02,10,Lexxi Mayes,Paris North Lamar,52.44,97.52,63.5,108.86,269.89,Single-ply,SBD,F,
Girls,56.02,11,Ale Guerrero,Longview Spring Hill,54.88,106.59,54.43,81.65,242.67,Single-ply,SBD,F,
Girls,56.02,12,Jillian Munson,Caddo Mills,55.16,83.91,34.02,97.52,215.46,Single-ply,SBD,F,
Girls,56.02,DQ,Miranda Morin,Rusk,53.98,,,,,Single-ply,SBD,F,
Girls,60.1,1,Enchantra Roberson,Paris,56.7,129.27,72.57,161.03,362.87,Single-ply,SBD,F,
Girls,60.1,2,Brittany Chavez,Lindale,58.33,142.88,77.11,142.88,362.87,Single-ply,SBD,F,
Girls,60.1,3,Macey McAmis,Paris,56.34,138.35,58.97,129.27,326.59,Single-ply,SBD,F,
Girls,60.1,4,MiKesha Shorters,Paris,57.97,138.35,56.7,124.74,319.78,Single-ply,SBD,F,
Girls,60.1,5,ShKylie Jones,Gilmer,59.6,115.67,63.5,129.27,308.44,Single-ply,SBD,F,
Girls,60.1,6,Mia Bacy,Mabank,56.79,127.01,68.04,111.13,306.17,Single-ply,SBD,F,
Girls,60.1,7,Peyton Warren,Gilmer,59.96,122.47,56.7,115.67,294.84,Single-ply,SBD,F,
Girls,60.1,8,Laynie Gangross,Brownsboro,57.24,113.4,56.7,122.47,292.57,Single-ply,SBD,F,
Girls,60.1,9,Hali Reyes,Henderson,57.42,115.67,61.23,111.13,288.03,Single-ply,SBD,F,
Girls,60.1,10,Payten Nolen,Mabank,58.69,113.4,52.16,120.2,285.76,Single-ply,SBD,F,
Girls,60.1,11,Brooke Roby,Quinlan Ford,60.06,99.79,43.09,111.13,254.01,Single-ply,SBD,F,
Girls,67.36,1,Haley Lee,Brownsboro,63.32,163.29,81.65,145.15,390.09,Single-ply,SBD,F,
Girls,67.36,2,Ashley McGuire,Paris,63.41,142.88,70.31,136.08,349.27,Single-ply,SBD,F,
Girls,67.36,3,Maddie Davidson,Gilmer,66.59,124.74,83.91,136.08,344.73,Single-ply,SBD,F,
Girls,67.36,4,Carly Dean,Gilmer,67.31,136.08,70.31,124.74,331.12,Single-ply,SBD,F,
Girls,67.36,5,Trinity Hawkins,Brownsboro,65.5,136.08,81.65,111.13,328.85,Single-ply,SBD,F,
Girls,67.36,6,Atajdren Gill,Paris,62.78,136.08,56.7,124.74,317.51,Single-ply,SBD,F,
Girls,67.36,7,Raji Canady,Gilmer,63.14,124.74,65.77,120.2,310.71,Single-ply,SBD,F,
Girls,67.36,8,Chelynn Palmer,Lindale,61.01,113.4,68.04,124.74,306.17,Single-ply,SBD,F,
Girls,67.36,9,Mason Blalock,Rusk,67.31,122.47,52.16,129.27,303.91,Single-ply,SBD,F,
Girls,67.36,10,Lindsey Bersano,Brownsboro,65.68,104.33,72.57,115.67,292.57,Single-ply,SBD,F,
Girls,67.36,11,Mackenzie Martin,Paris,62.78,102.06,65.77,111.13,278.96,Single-ply,SBD,F,
Girls,67.36,12,Kirston McMullen,Canton,62.23,97.52,68.04,111.13,276.69,Single-ply,SBD,F,
Girls,67.36,13,Kyleigh Thornhill,Bullard,61.6,97.52,43.09,111.13,251.74,Single-ply,SBD,F,
Girls,67.36,DQ,Alaysia Perkins,Kaufman,66.5,117.93,,,,Single-ply,SBD,F,
Girls,75.07,1,Aariyana Webb,Gilmer,74.21,163.29,90.72,156.49,410.5,Single-ply,SBD,F,
Girls,75.07,2,Hannah Titlow,Paris North Lamar,71.67,136.08,81.65,142.88,360.61,Single-ply,SBD,F,
Girls,75.07,3,Mae Lewis,Brownsboro,74.3,154.22,70.31,131.54,356.07,Single-ply,SBD,F,
Girls,75.07,4,Lauren Luce,Lindale,72.57,120.2,74.84,154.22,349.27,Single-ply,SBD,F,
Girls,75.07,5,Emi Etheridge,Rusk,69.67,140.61,54.43,136.08,331.12,Single-ply,SBD,F,
Girls,75.07,6,Gabbi Flores,Lindale,71.21,124.74,68.04,129.27,322.05,Single-ply,SBD,F,
Girls,75.07,7,Brekaelah McAllister,Henderson,69.22,129.27,65.77,124.74,319.78,Single-ply,SBD,F,
Girls,75.07,8,Baylee Xayavong,Mabank,70.31,122.47,63.5,124.74,310.71,Single-ply,SBD,F,
Girls,75.07,9,Zakiya Gray,Paris,74.3,127.01,65.77,115.67,308.44,Single-ply,SBD,F,
Girls,75.07,10,Harley Lenard,Rusk,68.58,115.67,54.43,133.81,303.91,Single-ply,SBD,F,
Girls,75.07,11,Lyon Kendall,Mabank,71.49,120.2,63.5,113.4,297.1,Single-ply,SBD,F,
Girls,75.07,12,Trinity Waits,Henderson,71.67,106.59,65.77,111.13,283.5,Single-ply,SBD,F,
Girls,75.07,13,Grace O'Bannon,Bullard,69.85,102.06,52.16,124.74,278.96,Single-ply,SBD,F,
Girls,75.07,14,Fults Julia,Tyler Chapel Hill,75.02,104.33,63.5,104.33,272.16,Single-ply,SBD,F,
Girls,82.33,1,Lala Moffitt,Lindale,80.83,156.49,88.45,174.63,419.57,Single-ply,SBD,F,
Girls,82.33,2,Jaidah Franklin,Paris,77.29,149.69,72.57,156.49,378.75,Single-ply,SBD,F,
Girls,82.33,3,Landrie Valenzuela,Canton,80.38,156.49,65.77,151.95,374.21,Single-ply,SBD,F,
Girls,82.33,4,Hailey Woods,Mabank,81.19,136.08,72.57,124.74,333.39,Single-ply,SBD,F,
Girls,82.33,5,Aelena Kellum,Henderson,82.28,136.08,65.77,129.27,331.12,Single-ply,SBD,F,
Girls,82.33,6,Briley King,Rusk,79.74,131.54,54.43,138.35,324.32,Single-ply,SBD,F,
Girls,82.33,7,Savannah Valderas,Kaufman,81.65,127.01,70.31,122.47,319.78,Single-ply,SBD,F,
Girls,82.33,8,Elora Purtee,Brownsboro,79.92,117.93,70.31,122.47,310.71,Single-ply,SBD,F,
Girls,82.33,9,A'naiya Sutton,Rusk,81.19,120.2,56.7,129.27,306.17,Single-ply,SBD,F,
Girls,82.33,10,Laney Reid,Canton,78.2,124.74,49.9,106.59,281.23,Single-ply,SBD,F,
Girls,82.33,11,Brooklyn McGee,Tyler Chapel Hill,79.47,104.33,43.09,129.27,276.69,Single-ply,SBD,F,
Girls,82.33,12,Deanna Battson,Caddo Mills,80.2,108.86,47.63,97.52,254.01,Single-ply,SBD,F,
Girls,82.33,13,Kelsey Sims,Brownsboro,82.19,95.25,61.23,97.52,254.01,Single-ply,SBD,F,
Girls,90.04,1,Mayra Cortes,Van,84.46,163.29,63.5,156.49,383.29,Single-ply,SBD,F,
Girls,90.04,2,Kendalynn Suell,Tyler Chapel Hill,84.82,138.35,65.77,154.22,358.34,Single-ply,SBD,F,
Girls,90.04,3,Deonakah Jones,Gilmer,89.9,149.69,81.65,122.47,353.8,Single-ply,SBD,F,
Girls,90.04,4,Yuritza Hernandez,Quinlan Ford,88.54,151.95,72.57,127.01,351.53,Single-ply,SBD,F,
Girls,90.04,5,Cassidy Miller,Waxahachie Life,83.19,129.27,79.38,129.27,337.93,Single-ply,SBD,F,
Girls,90.04,6,Shyla Walls,Canton,87,122.47,86.18,127.01,335.66,Single-ply,SBD,F,
Girls,90.04,7,Lillianna Purtee,Brownsboro,86.45,113.4,72.57,136.08,322.05,Single-ply,SBD,F,
Girls,90.04,8,Kylie Clamon,Mabank,84.82,120.2,70.31,111.13,301.64,Single-ply,SBD,F,
Girls,90.04,9,Gabby Flores,Rusk,89.9,133.81,49.9,115.67,299.37,Single-ply,SBD,F,
Girls,90.04,10,Taniya Crumpton,Tyler Chapel Hill,85.64,102.06,54.43,129.27,285.76,Single-ply,SBD,F,
Girls,90.04,11,Bailey Aynesworth,Tyler Chapel Hill,87.45,113.4,54.43,117.93,285.76,Single-ply,SBD,F,
Girls,90.04,12,Skiler Pallett,Mabank,84.91,104.33,63.5,115.67,283.5,Single-ply,SBD,F,
Girls,90.04,13,Alondra Martinez,Wills Point,87.82,120.2,38.56,124.74,283.5,Single-ply,SBD,F,
Girls,90.04,DQ,Vivian Brisbois,Canton,85.73,120.2,,,,Single-ply,SBD,F,
Girls,100.02,1,Zaniyah Mumphrey,Lindale,95.25,154.22,81.65,154.22,390.09,Single-ply,SBD,F,
Girls,100.02,2,Brianna Parades,Lindale,99.16,156.49,79.38,145.15,381.02,Single-ply,SBD,F,
Girls,100.02,3,Daphne Neighbor,Gilmer,95.44,147.42,81.65,138.35,367.41,Single-ply,SBD,F,
Girls,100.02,4,Mady Garcia,Wills Point,93.26,151.95,86.18,127.01,365.14,Single-ply,SBD,F,
Girls,100.02,5,Aryah Turner,Center,93.8,131.54,61.23,131.54,324.32,Single-ply,SBD,F,
Girls,100.02,6,Brandy Rangel,Wills Point,100.02,117.93,56.7,129.27,303.91,Single-ply,SBD,F,
Girls,100.02,7,Ashlan Lewis,Wills Point,92.26,102.06,45.36,138.35,285.76,Single-ply,SBD,F,
Girls,100.02,8,Tarryn Munns,Kaufman,95.35,88.45,45.36,102.06,235.87,Single-ply,SBD,F,
Girls,100.02,DQ,Madison Lazaro,Henderson,97.7,129.27,65.77,,,Single-ply,SBD,F,
Girls,100.02,DQ,Skylar McCool,Van,96.16,140.61,,,,Single-ply,SBD,F,
Girls,117.71,1,Angela Hernandez,Quinlan Ford,113.49,201.85,83.91,142.88,428.64,Single-ply,SBD,F,
Girls,117.71,2,Maddison Yruegas,Caddo Mills,105.05,181.44,90.72,147.42,419.57,Single-ply,SBD,F,
Girls,117.71,3,Gabby Cabrera,Lindale,107.86,136.08,99.79,142.88,378.75,Single-ply,SBD,F,
Girls,117.71,4,Skylah Block,Texarkana Liberty-Eylau,113.49,140.61,74.84,140.61,356.07,Single-ply,SBD,F,
Girls,117.71,5,Tymia Browner,Paris,107.41,136.08,72.57,120.2,328.85,Single-ply,SBD,F,
Girls,117.71,6,Jasmine Simon,Henderson,117.48,117.93,70.31,131.54,319.78,Single-ply,SBD,F,
Girls,117.71,7,Asja Sims,Paris,106.68,92.99,61.23,92.99,247.21,Single-ply,SBD,F,
Girls,117.71,8,Bailey Guy,Van,102.51,61.23,43.09,99.79,204.12,Single-ply,SBD,F,
Girls,117.71+,1,Grace Moses,Gilmer,152.23,195.04,95.25,142.88,433.18,Single-ply,SBD,F,
Girls,117.71+,2,Rachel Petree,Longview Spring Hill,117.93,158.76,90.72,151.95,401.43,Single-ply,SBD,F,
Girls,117.71+,3,Andrea Horton,Center,124.01,142.88,68.04,145.15,356.07,Single-ply,SBD,F,
Girls,117.71+,4,Kayla Griffin,Pittsburg,122.56,129.27,68.04,133.81,331.12,Single-ply,SBD,F,
Girls,117.71+,5,Sydney Shiver,Paris,122.65,102.06,74.84,124.74,301.64,Single-ply,SBD,F,
Girls,117.71+,6,Natalie Vadnais,Van,130.63,52.16,43.09,99.79,195.04,Single-ply,SBD,F,
Girls,117.71+,DQ,Zeara Alexander,Paris,166.11,136.08,86.18,,,Single-ply,SBD,F,
Girls,,NS,Kiera Martin,Paris,,,,,,Single-ply,SBD,F,
Girls,,NS,Hailey Robinson,Van,,,,,,Single-ply,SBD,F,
Girls,,NS,Sahnyia Nixon,Texarkana Liberty-Eylau,,,,,,Single-ply,SBD,F,
Girls,,NS,LaQueisha Jeffery,Texarkana Liberty-Eylau,,,,,,Single-ply,SBD,F,
