Division,WeightClassKg,Place,Name,Team,BodyweightKg,Best3SquatKg,Best3BenchKg,Best3DeadliftKg,TotalKg,Equipment,Event,Sex,BirthDate
Girls,47.85,1,Makala Rodriguez,Itasca,45.36,83.91,27.22,81.65,192.78,Single-ply,SBD,F,
Girls,47.85,2,Marilyn Cisneros,Itasca,47.63,72.57,27.22,72.57,172.37,Single-ply,SBD,F,
Girls,47.85,DQ,Katie Kirby,Godley,46.18,,,,,Single-ply,SBD,F,
Girls,51.94,1,Audrey Bower,Godley,51.35,92.99,43.09,86.18,222.26,Single-ply,SBD,F,
Girls,51.94,2,Catrina Leverett,Godley,48.63,83.91,38.56,92.99,215.46,Single-ply,SBD,F,
Girls,56.02,1,Emma Brown,Tolar,54.43,92.99,54.43,95.25,242.67,Single-ply,SBD,F,
Girls,56.02,2,Macy Robinson,Godley,54.98,77.11,34.02,99.79,210.92,Single-ply,SBD,F,
Girls,56.02,DQ,Kaelyn Godfrey,Godley,54.16,86.18,,,,Single-ply,SBD,F,
Girls,60.1,1,Kaitlyn Bonin,Godley,59.06,92.99,40.82,108.86,242.67,Single-ply,SBD,F,
Girls,60.1,2,Christan Stevenson,Itasca,58.51,92.99,40.82,102.06,235.87,Single-ply,SBD,F,
Girls,60.1,3,Bryanna Morales,Godley,59.33,74.84,38.56,83.91,197.31,Single-ply,SBD,F,
Girls,60.1,DQ,Madison Rodriguez,Itasca,59.87,77.11,,,,Single-ply,SBD,F,
Girls,67.36,1,Cate Heiner,Godley,64.95,115.67,58.97,117.93,292.57,Single-ply,SBD,F,
Girls,67.36,2,Symphany Greer,Godley,62.32,113.4,56.7,102.06,272.16,Single-ply,SBD,F,
Girls,67.36,3,Abby Cornelius,Godley,60.42,108.86,47.63,106.59,263.08,Single-ply,SBD,F,
Girls,67.36,4,Allysa Botello,Itasca,65.77,83.91,36.29,97.52,217.72,Single-ply,SBD,F,
Girls,67.36,5,Kynlee Wilson,Godley,66.5,81.65,31.75,83.91,197.31,Single-ply,SBD,F,
Girls,67.36,6,Taylee Graves,Godley,66.86,65.77,40.82,72.57,179.17,Single-ply,SBD,F,
Girls,75.07,1,Laney Cornelius,Godley,74.75,129.27,56.7,108.86,294.84,Single-ply,SBD,F,
Girls,75.07,2,Carolina Fragoso,Itasca,70.76,111.13,52.16,122.47,285.76,Single-ply,SBD,F,
Girls,75.07,3,Daniela Chavez,Itasca,68.95,97.52,47.63,106.59,251.74,Single-ply,SBD,F,
Girls,75.07,DQ,Michelle Chavez,Itasca,72.12,99.79,,,,Single-ply,SBD,F,
Girls,82.33,1,Kenzie Mayes,Godley,78.47,122.47,77.11,129.27,328.85,Single-ply,SBD,F,
Girls,90.04,1,Kailey Thompson,Godley,89.09,142.88,65.77,127.01,335.66,Single-ply,SBD,F,
Girls,90.04,2,Isabel Ramirez,Godley,86.73,81.65,47.63,106.59,235.87,Single-ply,SBD,F,
