Division,WeightClassKg,Place,Name,Team,BodyweightKg,Best3SquatKg,Best3BenchKg,Best3DeadliftKg,TotalKg,Equipment,Event,Sex
Boys,51.71,1,Joe Castillo #3,Altair Rice,51.39,136.08,63.5,142.88,342.46,Single-ply,SBD,M
Boys,51.71,2,Jacob Guerrero,Yorktown,50.35,138.35,68.04,122.47,328.85,Single-ply,SBD,M
Boys,51.71,3,Brian Peralta,Yorktown,51.71,117.93,63.5,140.61,322.05,Single-ply,SBD,M
Boys,51.71,4,Drey Rosas,Weimar,51.71,111.13,52.16,124.74,288.03,Single-ply,SBD,M
Boys,51.71,5,Eli Saunders,Burton,47.17,79.38,54.43,111.13,244.94,Single-ply,SBD,M
Boys,51.71,6,Kaijuan Mull,Vanderbilt Industrial,46.27,77.11,45.36,99.79,222.26,Single-ply,SBD,M
Boys,55.79,1,Ryan Garcia,Cuero,54.43,151.95,79.38,131.54,362.87,Single-ply,SBD,M
Boys,55.79,2,Dylan Crye,Hallettsville,54.88,142.88,72.57,145.15,360.61,Single-ply,SBD,M
Boys,55.79,3,Trey Steffens,East Bernard,55.34,136.08,68.04,120.2,324.32,Single-ply,SBD,M
Boys,55.79,4,Austin Draper,East Bernard,53.52,122.47,68.04,129.27,319.78,Single-ply,SBD,M
Boys,55.79,5,Ean Cheerne,Vanderbilt Industrial,55.79,95.25,65.77,131.54,292.57,Single-ply,SBD,M
Boys,55.79,6,Brandon Limas,Wharton,53.98,83.91,61.23,,145.15,Single-ply,SB,M
Boys,59.87,1,Cole Brogger,Vanderbilt Industrial,59.87,158.76,90.72,167.83,417.3,Single-ply,SBD,M
Boys,59.87,2,Kameron Matthews,East Bernard,58.51,138.35,81.65,147.42,367.41,Single-ply,SBD,M
Boys,59.87,3,Carter Callahan,Burton,59.87,136.08,72.57,154.22,362.87,Single-ply,SBD,M
Boys,59.87,4,Kevin Gonzales,Columbus,58.51,115.67,74.84,167.83,358.34,Single-ply,SBD,M
Boys,59.87,5,Lucas DeBord,Cuero,58.51,127.01,74.84,120.2,322.05,Single-ply,SBD,M
Boys,59.87,6,Armando Ibarra,Brookshire Royal,58.51,113.4,65.77,138.35,317.51,Single-ply,SBD,M
Boys,59.87,7,Sam Peacock,Altair Rice,56.7,102.06,70.31,136.08,308.44,Single-ply,SBD,M
Boys,59.87,8,Gavin Kirkland,Burton,59.87,115.67,58.97,120.2,294.84,Single-ply,SBD,M
Boys,67.13,1,Niklas Schatz,East Bernard,66.68,167.83,83.91,181.44,433.18,Single-ply,SBD,M
Boys,67.13,2,Chris Torres,Burton,67.13,142.88,86.18,170.1,399.16,Single-ply,SBD,M
Boys,67.13,3,Hunter Kohleffel,Columbus,65.77,165.56,72.57,158.76,396.89,Single-ply,SBD,M
Boys,67.13,4,Guadalupe McGinnis,Yorktown,65.32,147.42,97.52,142.88,387.82,Single-ply,SBD,M
Boys,67.13,5,Gunner Davidek,Wharton,66.68,136.08,88.45,151.95,376.48,Single-ply,SBD,M
Boys,67.13,6,Steve Espiricueta,Brookshire Royal,65.77,124.74,81.65,145.15,351.53,Single-ply,SBD,M
Boys,67.13,7,Jayden Gonzales,Hallettsville,62.6,124.74,70.31,145.15,340.19,Single-ply,SBD,M
Boys,67.13,8,Jesse Cornish,Vanderbilt Industrial,64.86,127.01,74.84,124.74,326.59,Single-ply,SBD,M
Boys,67.13,9,Nathan Gurecky,Wharton,60.33,108.86,74.84,129.27,312.98,Single-ply,SBD,M
Boys,67.13,10,Aden Falks,Wharton,65.77,92.99,65.77,111.13,269.89,Single-ply,SBD,M
Boys,67.13,11,Austin Stech,Weimar,64.41,86.18,49.9,108.86,244.94,Single-ply,SBD,M
Boys,74.84,1,Justin Ficklen,Cuero,72.57,161.03,115.67,181.44,458.13,Single-ply,SBD,M
Boys,74.84,2,Blake Jedlicka,East Bernard,69.85,151.95,70.31,176.9,399.16,Single-ply,SBD,M
Boys,74.84,3,Joshua Ramirez,Flatonia,72.57,158.76,79.38,156.49,394.63,Single-ply,SBD,M
Boys,74.84,4,Ricardo Luna,Vanderbilt Industrial,70.76,147.42,95.25,140.61,383.29,Single-ply,SBD,M
Boys,74.84,5,Miles DeLeon,Wharton,69.4,131.54,108.86,140.61,381.02,Single-ply,SBD,M
Boys,74.84,6,Tre Stovall,Altair Rice,68.81,142.88,61.23,151.95,356.07,Single-ply,SBD,M
Boys,74.84,7,Juan Barboza,Altair Rice,73.53,136.08,63.5,149.69,349.27,Single-ply,SBD,M
Boys,74.84,8,Johnathan Garcia,Vanderbilt Industrial,74.84,122.47,86.18,131.54,340.19,Single-ply,SBD,M
Boys,74.84,9,Houston Heger,Weimar,72.17,124.74,88.45,120.2,333.39,Single-ply,SBD,M
Boys,74.84,DQ,Damontae Levi,Altair Rice,69.85,,,,,Single-ply,SBD,M
Boys,74.84,DQ,Kalen Malandrakis,Cuero,70.31,,,,,Single-ply,SBD,M
Boys,74.84,DQ,Kevin Martinez,East Bernard,73.48,145.15,,176.9,,Single-ply,SBD,M
Boys,82.1,1,Ezekiel Davila,Altair Rice,78.02,249.48,117.93,219.99,587.4,Single-ply,SBD,M
Boys,82.1,2,Dayton Ball,Cuero,78.47,204.12,138.35,244.94,587.4,Single-ply,SBD,M
Boys,82.1,3,Hunter Goudeau,East Bernard,80.29,204.12,102.06,226.8,532.97,Single-ply,SBD,M
Boys,82.1,4,Weston Warshack,Columbus,82.1,201.85,120.2,201.85,523.9,Single-ply,SBD,M
Boys,82.1,5,Landon Rodriguez,Altair Rice,78.29,192.78,104.33,179.17,476.27,Single-ply,SBD,M
Boys,82.1,6,Josh Sanger,Yorktown,78.02,158.76,81.65,181.44,421.84,Single-ply,SBD,M
Boys,82.1,7,Dylan Schaefer,Flatonia,82.1,158.76,81.65,181.44,421.84,Single-ply,SBD,M
Boys,82.1,8,Cody Baker,Cuero,80.29,156.49,102.06,147.42,405.97,Single-ply,SBD,M
Boys,82.1,9,Jonathan Huerta,Brookshire Royal,78.93,170.1,74.84,154.22,399.16,Single-ply,SBD,M
Boys,82.1,10,Jesus Vasquez,Brookshire Royal,80.29,129.27,92.99,170.1,392.36,Single-ply,SBD,M
Boys,82.1,11,Carson Evans,Hallettsville,80.29,142.88,90.72,158.76,392.36,Single-ply,SBD,M
Boys,82.1,12,Joel Mendoza,Columbus,79.38,145.15,77.11,154.22,376.48,Single-ply,SBD,M
Boys,82.1,13,Aldahir Mendoza,Brookshire Royal,79.38,120.2,70.31,149.69,340.19,Single-ply,SBD,M
Boys,82.1,14,Haven Pennington,Hempstead,75.3,113.4,81.65,142.88,337.93,Single-ply,SBD,M
Boys,82.1,15,Luke Guevarra,Hallettsville,80.74,129.27,68.04,129.27,326.59,Single-ply,SBD,M
Boys,82.1,DQ,Chris Murille,East Bernard,79.38,,,,,Single-ply,SBD,M
Boys,82.1,DQ,Josh McDonald,Brookshire Royal,77.56,111.13,77.11,,,Single-ply,SBD,M
Boys,89.81,1,Ben Sandoval,East Bernard,89.81,208.65,111.13,204.12,523.9,Single-ply,SBD,M
Boys,89.81,2,Blaine Allen,Vanderbilt Industrial,88,158.76,97.52,176.9,433.18,Single-ply,SBD,M
Boys,89.81,3,Jose Navarro,Wharton,87.09,142.88,111.13,151.95,405.97,Single-ply,SBD,M
Boys,89.81,4,Chris Bethany,Vanderbilt Industrial,83.91,138.35,86.18,156.49,381.02,Single-ply,SBD,M
Boys,89.81,5,Javier Ferritiz,Weimar,86.64,133.81,74.84,151.95,360.61,Single-ply,SBD,M
Boys,89.81,6,Hayden Scott,Wharton,88.9,102.06,72.57,111.13,285.76,Single-ply,SBD,M
Boys,99.79,1,Aj Flores,Altair Rice,96.25,256.28,136.08,233.6,625.96,Single-ply,SBD,M
Boys,99.79,2,Blayne Moreland,Vanderbilt Industrial,98.43,204.12,129.27,204.12,537.51,Single-ply,SBD,M
Boys,99.79,3,Cameron Riggins,Burton,99.79,213.19,111.13,185.97,510.29,Single-ply,SBD,M
Boys,99.79,4,Luke Trevino,East Bernard,95.25,192.78,136.08,149.69,478.54,Single-ply,SBD,M
Boys,99.79,5,Landon Sluka,Hallettsville,93.89,179.17,111.13,185.97,476.27,Single-ply,SBD,M
Boys,99.79,6,Devin Leister,Yorktown,98.43,204.12,92.99,176.9,474,Single-ply,SBD,M
Boys,99.79,7,Margarito Calderon,Brookshire Royal,97.07,176.9,102.06,183.7,462.66,Single-ply,SBD,M
Boys,99.79,8,Ethan Pompa,Yorktown,99.79,181.44,97.52,158.76,437.72,Single-ply,SBD,M
Boys,99.79,9,Samuel Hermes,Hallettsville,96.62,156.49,92.99,170.1,419.57,Single-ply,SBD,M
Boys,99.79,10,Martin Guerrero,Yorktown,98.88,149.69,90.72,163.29,403.7,Single-ply,SBD,M
Boys,99.79,11,Robert Perdziak,Hallettsville,93.44,149.69,92.99,156.49,399.16,Single-ply,SBD,M
Boys,99.79,12,Gage Gaona,Wharton,92.53,99.79,77.11,102.06,278.96,Single-ply,SBD,M
Boys,99.79,13,Agustin Muniz,Wharton,95.71,92.99,72.57,92.99,258.55,Single-ply,SBD,M
Boys,99.79,DQ,Everado Esquivel,Altair Rice,95.39,183.7,,,,Single-ply,SBD,M
Boys,109.77,1,Tristan Bermea,Vanderbilt Industrial,105.69,233.6,165.56,224.53,623.69,Single-ply,SBD,M
Boys,109.77,2,Jordan Garza,Weimar,107.68,240.4,133.81,235.87,610.08,Single-ply,SBD,M
Boys,109.77,3,Destin Shuler,East Bernard,104.78,226.8,127.01,226.8,580.6,Single-ply,SBD,M
Boys,109.77,4,Juan Hernandez #7,Brookshire Royal,107.05,215.46,106.59,213.19,535.24,Single-ply,SBD,M
Boys,109.77,5,Ryan Hlavinka,East Bernard,101.6,226.8,120.2,181.44,528.44,Single-ply,SBD,M
Boys,109.77,6,Danny Amaro,Weimar,100.7,190.51,104.33,206.38,501.22,Single-ply,SBD,M
Boys,109.77,7,Steven Pena,Wharton,101.15,192.78,108.86,181.44,483.08,Single-ply,SBD,M
Boys,109.77,8,Zach Banda,Cuero,106.14,188.24,95.25,188.24,471.74,Single-ply,SBD,M
Boys,109.77,9,Corbin Klausmeyer,Columbus,105.69,149.69,95.25,163.29,408.23,Single-ply,SBD,M
Boys,109.77,DQ,Omarian Gillum,Hempstead,106.14,,117.93,181.44,,Single-ply,SBD,M
Boys,109.77,DQ,Elijah Varnado,Cuero,102.51,,,,,Single-ply,SBD,M
Boys,124.74,1,Bennett Janssen,Cuero,121.11,179.17,104.33,147.42,430.91,Single-ply,SBD,M
Boys,124.74+,1,Taj Fields,Altair Rice,147.87,272.16,138.35,215.46,625.96,Single-ply,SBD,M
Boys,124.74+,2,Eduardo Arteaga,Brookshire Royal,125.65,226.8,111.13,231.33,569.26,Single-ply,SBD,M
Boys,124.74+,3,JR Schauer,East Bernard,135.17,229.06,142.88,188.24,560.19,Single-ply,SBD,M
Boys,124.74+,4,Dylan Ramirez,Altair Rice,134.4,235.87,131.54,185.97,553.38,Single-ply,SBD,M
Boys,124.74+,5,Cody Robert,Hallettsville,140.61,208.65,127.01,192.78,528.44,Single-ply,SBD,M
Boys,124.74+,6,Antonio Marquez,Altair Rice,128.37,217.72,106.59,195.04,519.36,Single-ply,SBD,M
Boys,124.74+,7,Jonas DeLeon,Cuero,148.32,222.26,117.93,158.76,498.95,Single-ply,SBD,M
Boys,124.74+,8,Kolton Brod,Columbus,138.35,181.44,127.01,185.97,494.42,Single-ply,SBD,M
Boys,124.74+,9,Eric Cedillo,Flatonia,165.56,176.9,111.13,158.76,446.79,Single-ply,SBD,M
Boys,,NS,Jalen Reeves,Cuero,,,,,,Single-ply,SBD,M
Boys,,NS,Wyatt Bush,Hempstead,,,,,,Single-ply,SBD,M
Boys,,NS,John Jackson,Hempstead,,,,,,Single-ply,SBD,M
Boys,,NS,Harris Green-Moran,Flatonia,,,,,,Single-ply,SBD,M
Boys,,NS,Rylan Curlee,Columbus,,,,,,Single-ply,SBD,M
Boys,,NS,Joseph Garamillo,Columbus,,,,,,Single-ply,SBD,M
Boys,,NS,Jackson Fluitt,Vanderbilt Industrial,,,,,,Single-ply,SBD,M
Boys,,NS,Jackson Roensch,Columbus,,,,,,Single-ply,SBD,M
Boys,,NS,Nick Pavlicek,Columbus,,,,,,Single-ply,SBD,M
Boys,,NS,Dalton Opperman,Columbus,,,,,,Single-ply,SBD,M
Boys,,NS,Michael Shannon,Hallettsville,,,,,,Single-ply,SBD,M
Boys,,NS,Caleb Edmonds,Hallettsville,,,,,,Single-ply,SBD,M
Boys,,NS,Dylan Dennis,Weimar,,,,,,Single-ply,SBD,M
Boys,,NS,Josh Rubio,Weimar,,,,,,Single-ply,SBD,M
Boys,,NS,Nick Koopman,Weimar,,,,,,Single-ply,SBD,M
Boys,,NS,Matthew Jordan #3,Snook,,,,,,Single-ply,SBD,M
