Division,WeightClassKg,Place,Name,Team,BodyweightKg,Best3SquatKg,Best3BenchKg,Best3DeadliftKg,TotalKg,Equipment,Event,Sex,BirthDate
Boys,51.71,1,Tracy Johnson,Fairfield,50.8,92.99,43.09,113.4,249.48,Single-ply,SBD,M,
Boys,51.71,2,Colten Harvell,Fairfield,48.08,90.72,40.82,90.72,222.26,Single-ply,SBD,M,
Boys,55.79,1,Rowdy Hand,Fairfield,55.79,142.88,83.91,138.35,365.14,Single-ply,SBD,M,
Boys,55.79,2,Jake White,Fairfield,55.79,124.74,77.11,131.54,333.39,Single-ply,SBD,M,
Boys,59.87,1,Gus Kilman,Malakoff,59.33,120.2,65.77,115.67,301.64,Single-ply,SBD,M,
Boys,67.13,1,Corey Phillips,Malakoff,66.59,151.95,83.91,158.76,394.63,Single-ply,SBD,M,
Boys,67.13,2,Izick Smith,Kerens,67.04,149.69,68.04,158.76,376.48,Single-ply,SBD,M,
Boys,67.13,3,Michael DeMoss,Kerens,66.13,90.72,68.04,122.47,281.23,Single-ply,SBD,M,
Boys,74.84,1,Zander Crittenden,Kerens,70.67,181.44,136.08,181.44,498.95,Single-ply,SBD,M,
Boys,74.84,2,Brayden May,Kerens,73.12,170.1,106.59,158.76,435.45,Single-ply,SBD,M,
Boys,74.84,3,Zack Davis,Malakoff,71.85,158.76,86.18,147.42,392.36,Single-ply,SBD,M,
Boys,74.84,4,Collin Glass,Fairfield,68.95,136.08,77.11,142.88,356.07,Single-ply,SBD,M,
Boys,74.84,5,Kyler Schick,Fairfield,74.84,136.08,81.65,136.08,353.8,Single-ply,SBD,M,
Boys,74.84,6,Eric Escobedo,Fairfield,73.03,124.74,61.23,120.2,306.17,Single-ply,SBD,M,
Boys,82.1,1,Kelton Carlson,Fairfield,78.02,204.12,102.06,183.7,489.88,Single-ply,SBD,M,
Boys,82.1,2,Jaiden Trevino,Malakoff,82.01,147.42,113.4,167.83,428.64,Single-ply,SBD,M,
Boys,82.1,3,Evan Chavers,Fairfield,78.02,170.1,102.06,149.69,421.84,Single-ply,SBD,M,
Boys,89.81,1,K'Vionne Davis,Malakoff,89.63,258.55,136.08,206.38,601.01,Single-ply,SBD,M,
Boys,89.81,2,Antonio Rodriguez,Kerens,87.45,154.22,95.25,149.69,399.16,Single-ply,SBD,M,
Boys,89.81,3,Hayden Palmer,Kerens,87.54,136.08,79.38,163.29,378.75,Single-ply,SBD,M,
Boys,99.79,1,Wilson Basden,Fairfield,99.79,183.7,95.25,181.44,460.4,Single-ply,SBD,M,
Boys,99.79,2,Kain Jones,Malakoff,93.44,165.56,104.33,172.37,442.25,Single-ply,SBD,M,
Boys,99.79,3,Matthew Smith,Kerens,91.9,99.79,52.16,117.93,269.89,Single-ply,SBD,M,
Boys,99.79,DQ,Jose Morales,Malakoff,99.7,190.51,122.47,,,Single-ply,SBD,M,
Boys,109.77,1,Fernando Contreras,Malakoff,100.7,174.63,124.74,167.83,467.2,Single-ply,SBD,M,
Boys,109.77,2,Brady Williams,Fairfield,105.23,181.44,108.86,142.88,433.18,Single-ply,SBD,M,
Boys,109.77,3,Dalton McQuinn,Fairfield,106.14,158.76,102.06,158.76,419.57,Single-ply,SBD,M,
Boys,124.74,1,Lance Robertson,Malakoff,117.66,249.48,154.22,217.72,621.42,Single-ply,SBD,M,
Boys,124.74,2,Jesse Rodriguez,Malakoff,110.86,199.58,108.86,170.1,478.54,Single-ply,SBD,M,
Boys,124.74,3,Zanthony Jackson,Malakoff,119.84,188.24,106.59,158.76,453.59,Single-ply,SBD,M,
Boys,139.71,1,Mason Logan,Malakoff,125.65,156.49,102.06,142.88,401.43,Single-ply,SBD,M,
Boys,139.71+,1,Jay Thomas,Kerens,154.04,283.5,142.88,260.82,687.19,Single-ply,SBD,M,
