Division,WeightClassKg,Place,Name,Team,BodyweightKg,Best3SquatKg,Best3BenchKg,Best3DeadliftKg,TotalKg,Equipment,Event,Sex,BirthDate
Boys,55.79,1,Raymon Castaneda,Port Neches-Groves,55.34,145.15,86.18,142.88,374.21,Single-ply,SBD,M,
Boys,59.87,1,Camdyn Christopher,Bridge City,59.42,124.74,65.77,165.56,356.07,Single-ply,SBD,M,
Boys,67.13,1,Manuel Ogden,Port Neches-Groves,65.77,142.88,83.91,151.95,378.75,Single-ply,SBD,M,
Boys,67.13,2,Dylan Errington,Cleveland Tarkington,66.22,138.35,83.91,151.95,374.21,Single-ply,SBD,M,
Boys,67.13,3,Hector Valdez,Cleveland Tarkington,62.82,133.81,72.57,145.15,351.53,Single-ply,SBD,M,
Boys,67.13,DQ,Caleb Belanger,Port Neches-Groves,64.86,127.01,,,,Single-ply,SBD,M,
Boys,67.13,DQ,Aj Valdez,Cleveland Tarkington,62.82,183.7,,,,Single-ply,SBD,M,
Boys,74.84,1,Jacob Humble,Lumberton,73.03,206.38,111.13,210.92,528.44,Single-ply,SBD,M,
Boys,74.84,2,Andrew Martin,Port Neches-Groves,71.44,172.37,111.13,188.24,471.74,Single-ply,SBD,M,
Boys,74.84,3,Mason Droddy,Port Neches-Groves,70.08,,88.45,158.76,247.21,Single-ply,BD,M,
Boys,74.84,DQ,Cayden Talbot,Port Neches-Groves,72.12,129.27,,,,Single-ply,SBD,M,
Boys,82.1,1,Mario Martin,Bridge City,78.52,192.78,115.67,210.92,519.36,Single-ply,SBD,M,
Boys,82.1,2,Autrey Nichols,Port Neches-Groves,78.24,158.76,95.25,163.29,417.3,Single-ply,SBD,M,
Boys,89.81,1,Faustino Galvan,Lumberton,87.09,201.85,140.61,206.38,548.85,Single-ply,SBD,M,
Boys,89.81,2,Eric Steil,Port Neches-Groves,84.14,174.63,95.25,167.83,437.72,Single-ply,SBD,M,
Boys,89.81,DQ,Garrett Ling,Cleveland Tarkington,88,,,,,Single-ply,SBD,M,
Boys,99.79,1,Chase Bouget,Port Neches-Groves,96.39,185.97,124.74,176.9,487.61,Single-ply,SBD,M,
Boys,109.77,1,Jaydon Harris,Cleveland Tarkington,102.06,235.87,136.08,222.26,594.21,Single-ply,SBD,M,
Boys,124.74,1,Aldo Salinas,Lumberton,123.38,272.16,136.08,240.4,648.64,Single-ply,SBD,M,
Boys,124.74,2,Gavin Edwards,Cleveland Tarkington,116.8,240.4,142.88,185.97,569.26,Single-ply,SBD,M,
Boys,124.74,3,Landon Keller,Port Neches-Groves,115.21,188.24,102.06,142.88,433.18,Single-ply,SBD,M,
Boys,,NS,Sebastian Goodman,Lumberton,,,,,,Single-ply,SBD,M,
Boys,,NS,Bradley Sanders,Cleveland Tarkington,,,,,,Single-ply,SBD,M,
