Division,WeightClassKg,Place,Name,Team,BodyweightKg,Best3SquatKg,Best3BenchKg,Best3DeadliftKg,TotalKg,Equipment,Event,Sex,BirthDate
Boys,51.71,1,Zim Jochec,East Bernard,43.54,77.11,38.56,90.72,206.38,Single-ply,SBD,M,
Boys,55.79,1,Jacob Zea,Katy Taylor,53.07,129.27,65.77,131.54,326.59,Single-ply,SBD,M,
Boys,59.87,1,Kaleb Rivera,East Bernard,58.74,133.81,68.04,133.81,335.66,Single-ply,SBD,M,
Boys,59.87,2,Jake Gettleman,Katy Taylor,58.29,115.67,68.04,136.08,319.78,Single-ply,SBD,M,
Boys,67.13,1,Ben Bissaillon,Katy Taylor,66.22,149.69,108.86,195.04,453.59,Single-ply,SBD,M,
Boys,67.13,2,Fazwaan Muhammad,Katy Taylor,65.09,145.15,86.18,163.29,394.63,Single-ply,SBD,M,
Boys,67.13,3,Chase Anderson,East Bernard,64.64,142.88,77.11,140.61,360.61,Single-ply,SBD,M,
Boys,67.13,4,Jackson Morrow,East Bernard,67.13,120.2,70.31,127.01,317.51,Single-ply,SBD,M,
Boys,67.13,DQ,Cannon Goudeau,East Bernard,66.9,120.2,61.23,,,Single-ply,SBD,M,
Boys,74.84,1,Sam Olatubosun,Katy Taylor,71.67,158.76,92.99,142.88,394.63,Single-ply,SBD,M,
Boys,74.84,2,Colin Marcantel,East Bernard,69.85,167.83,74.84,142.88,385.55,Single-ply,SBD,M,
Boys,74.84,3,Mason Winkler,East Bernard,70.08,149.69,86.18,145.15,381.02,Single-ply,SBD,M,
Boys,74.84,4,Joseph Cooper,East Bernard,70.08,136.08,86.18,136.08,358.34,Single-ply,SBD,M,
Boys,74.84,5,Faran Zahid,Katy Taylor,68.95,120.2,70.31,149.69,340.19,Single-ply,SBD,M,
Boys,89.81,1,Nick Goedde,Katy Taylor,89.13,233.6,142.88,265.35,641.83,Single-ply,SBD,M,
Boys,89.81,2,Michael Goedde,Katy Taylor,85.73,142.88,79.38,161.03,383.29,Single-ply,SBD,M,
Boys,99.79,1,Daniel Ramirez,Katy Taylor,91.63,161.03,97.52,158.76,417.3,Single-ply,SBD,M,
Boys,99.79,2,Clint MaAnally,East Bernard,93.21,158.76,83.91,140.61,383.29,Single-ply,SBD,M,
Boys,109.77,1,Landan Mowry,Katy Taylor,102.29,,,192.78,192.78,Single-ply,D,M,
Boys,139.71,1,Jahangir Samandov,Katy Taylor,133.13,226.8,142.88,233.6,603.28,Single-ply,SBD,M,
Boys,139.71,2,Kyle Edwards,Katy Taylor,133.36,215.46,129.27,197.31,542.04,Single-ply,SBD,M,
Boys,139.71,3,Austin Norton,East Bernard,129.95,142.88,102.06,170.1,415.04,Single-ply,SBD,M,
Boys,139.71,4,Dawson Seago,Katy Taylor,136.53,,124.74,,124.74,Single-ply,B,M,
